-------------------------------------------------------------------------------
Test set: com.openclassrooms.tourguide.TestUserReward
-------------------------------------------------------------------------------
Tests run: 1, Failures: 0, Errors: 0, Skipped: 0, Time elapsed: 0.01 s - in com.openclassrooms.tourguide.TestUserReward
